<svg xmlns="http://www.w3.org/2000/svg" width="19.993" height="11.397" viewBox="0 0 19.993 11.397">
  <g id="arrow-point-to-right_copy_3" data-name="arrow-point-to-right copy 3" transform="translate(19.993) rotate(90)" opacity="0.4">
    <path id="Shape" d="M10.987,10.986l-8.6,8.6A1.4,1.4,0,0,1,.41,17.6L8.017,10,.41,2.39A1.4,1.4,0,1,1,2.39.41l8.6,8.6a1.4,1.4,0,0,1,0,1.98Z" transform="translate(0 0)"/>
  </g>
</svg>
