<svg xmlns="http://www.w3.org/2000/svg" width="270.613" height="300" viewBox="0 0 270.613 300">
  <g id="Group_47" data-name="Group 47" transform="translate(-548 -310)">
    <g id="hourglass" transform="translate(548 310)">
      <path id="Shape" d="M52.426,30.86C112,30.86,152.911,0,181.617,0s89,16.5,89,148.562S189.506,300,157.932,300C10.077,300.009-53.081,30.86,52.426,30.86Z" fill="#0072ba"/>
    </g>
    <g id="Shake_hands" data-name="Shake hands" transform="translate(590.846 439.135) rotate(-13)">
      <path id="Path_14" data-name="Path 14" d="M75.069,82.007c.09,1.641.148,2.339.172,3.045.1,3.742-1.453,6.566-4.924,8.133a7.871,7.871,0,0,1-9.569-1.847c-4.177-4.35-8.437-8.659-12.163-13.386-2.758-3.5-5.827-5.113-10.2-4.407a22.077,22.077,0,0,1-3.283,0V13.634c6.336,1.888,10.472-1.362,15.06-5.154,5.581-4.6,12.655-5.441,20.575-2.676A24.621,24.621,0,0,0,67.715,7.8c-5.17,4.653-10.472,9.184-15.331,14.141a17.44,17.44,0,0,0-4.4,7.739,8.855,8.855,0,0,0,1.707,6.7C60.657,49.77,78.081,51.9,92.263,41.842c3.086-2.183,6.081-4.5,9.307-6.886.771.722,1.518,1.379,2.208,2.093q13.632,14.182,27.264,28.331c3.578,3.734,3.554,8.527-.041,12.311a8.585,8.585,0,0,1-11.941.222c-1.428-1.256-2.634-2.774-4.169-4.054,1.108,4.924.64,9.282-4.021,11.818-6.927,3.759-10.973-1.051-15.134-6.262,1.879,7.468-.32,11.638-6.237,12.795-3.39.673-5.991-.747-8.207-3.135C79.336,86.973,77.539,84.814,75.069,82.007Z" transform="translate(-6.293 -0.757)" fill="#fff"/>
      <path id="Path_15" data-name="Path 15" d="M149.455,67.471,107.418,22.643c-5.4,3.948-10.669,7.9-16.086,11.72-6.8,4.826-14.157,6.845-22.282,3.677a16.341,16.341,0,0,1-4.1-2.593c-4.506-3.611-4.58-7.444-.32-11.285Q74.409,15.323,84.2,6.467c9.849-8.9,23.292-8.79,31.556,1.436,4.629,5.745,9.471,7.657,16.414,7.025,5.671-.517,11.433-.107,17.235-.107Z" transform="translate(-11.026 0)" fill="#fff"/>
      <path id="Path_16" data-name="Path 16" d="M0,9.7H20.075V79.969H0Z" transform="translate(0 -1.739)" fill="#fff"/>
      <path id="Path_17" data-name="Path 17" d="M178.69,9.61h20.017V79.838H178.69Z" transform="translate(-32.037 -1.723)" fill="#fff"/>
    </g>
  </g>
</svg>
