<svg xmlns="http://www.w3.org/2000/svg" width="17.718" height="23.255" viewBox="0 0 17.718 23.255">
  <path id="lock" d="M14.859,19.218A2.215,2.215,0,1,0,12.644,17,2.221,2.221,0,0,0,14.859,19.218ZM21.5,9.252H20.4V7.037a5.537,5.537,0,0,0-11.074,0V9.252H8.215A2.221,2.221,0,0,0,6,11.466V22.54a2.221,2.221,0,0,0,2.215,2.215H21.5a2.221,2.221,0,0,0,2.215-2.215V11.466A2.221,2.221,0,0,0,21.5,9.252ZM11.426,7.037a3.433,3.433,0,1,1,6.866,0V9.252H11.426ZM21.5,22.54H8.215V11.466H21.5Z" transform="translate(-6 -1.5)" fill="#0072ba"/>
</svg>
