<svg id="thumbs-down-line" xmlns="http://www.w3.org/2000/svg" width="25" height="24" viewBox="0 0 25 24">
  <path id="Path_23" data-name="Path 23" d="M12,8.791C14.255,7.338,17.637,5.6,19.235,5.6h4.633a13.464,13.464,0,0,1,2.556,4.855,21.993,21.993,0,0,1,1.019,6.325h-6.95v7.986a1.632,1.632,0,0,1-.973,1.35,36.815,36.815,0,0,0-3.266-6.964A8.8,8.8,0,0,0,12,16.05v1.7a7.084,7.084,0,0,1,3.019,2.4c1.452,2,3.313,7.275,3.328,7.323a.767.767,0,0,0,.919.5c1.035-.319,2.772-1.294,2.772-3.21V18.374h6.177a.786.786,0,0,0,.772-.8,23.891,23.891,0,0,0-1.081-7.682c-1.459-4.312-3.166-5.7-3.243-5.766A.753.753,0,0,0,24.193,4H19.235C17.359,4,14.185,5.6,12,6.9Z" transform="translate(-3.995 -3.998)" fill="#f99746"/>
  <path id="Path_24" data-name="Path 24" d="M2,5H7.6a.8.8,0,0,1,.8.8V18.609a.8.8,0,0,1-.8.8H2ZM6.8,6.6H3.6V17.809H6.8Z" transform="translate(-2 -4.198)" fill="#f99746"/>
</svg>
