<svg xmlns="http://www.w3.org/2000/svg" xmlns:xlink="http://www.w3.org/1999/xlink" width="118" height="35" viewBox="0 0 118 35">
    <defs>
        <path id="yvz15x08qa" d="M23.489 14.348L10.387 7.596c-.371-.19-.714-.235-.991-.153L20.127 17.5l3.362-3.152"/>
        <path id="xqm8b4qkqb" d="M9.382 7.404c-.4.117-.658.496-.658 1.07l.003 18.057c0 .567.25.94.638 1.065l10.768-10.104L9.382 7.404"/>
        <path id="ltdc3wedic" d="M9.396 27.552c.278.088.627.047 1.007-.148l13.086-6.746-3.37-3.158L9.397 27.552"/>
    </defs>
    <g fill="none" fill-rule="evenodd">
        <g>
            <g transform="translate(-79 -452) translate(79 452)">
                <rect width="117.444" height="35" fill="#000" fill-rule="nonzero" rx="7.5"/>
                <path fill="#FFF" fill-rule="nonzero" stroke="#FFF" stroke-width=".5" d="M41.606 8.29c.03.638-.21 1.26-.663 1.72-.508.51-1.215.786-1.945.757-.733.016-1.44-.264-1.954-.774-1.072-1.066-1.072-2.769 0-3.835.805-.765 2.004-.985 3.042-.558.318.127.603.324.83.576l-.468.455c-.356-.417-.893-.646-1.45-.619-.954.007-1.786.63-2.034 1.526-.249.895.147 1.842.968 2.314.82.472 1.864.354 2.551-.289.27-.288.427-.66.443-1.049h-1.928v-.619h2.573c.02.131.032.263.035.396h0zM44.964 6.049L42.882 6.049 42.882 7.754 44.779 7.754 44.779 8.4 42.882 8.4 42.882 10.105 44.964 10.105 44.964 10.769 42.28 10.769 42.28 5.385 44.964 5.385zM47.607 10.769L46.987 10.769 46.987 6.049 45.636 6.049 45.636 5.385 48.991 5.385 48.991 6.049 47.607 6.049zM51.753 10.769L51.753 5.385 52.269 5.385 52.269 10.769zM55.285 10.769L54.784 10.769 54.784 6.049 53.689 6.049 53.689 5.385 56.373 5.385 56.373 6.049 55.285 6.049zM64.33 9.985c-.509.502-1.198.784-1.917.784-.72 0-1.409-.282-1.917-.784-1.023-1.072-1.023-2.745 0-3.817.498-.517 1.194-.801 1.917-.783.72-.01 1.414.272 1.917.783.506.508.782 1.196.766 1.909.024.713-.254 1.404-.766 1.908h0zm-3.338-.43c.375.375.887.586 1.42.586.535 0 1.046-.21 1.421-.586.78-.835.78-2.121 0-2.957-.375-.375-.886-.586-1.42-.586-.534 0-1.046.21-1.42.586-.78.836-.78 2.122 0 2.957h0zM66.44 10.769L66.44 5.385 67.115 5.385 69.236 9.576 69.236 9.576 69.236 8.535 69.236 5.385 69.796 5.385 69.796 10.769 69.215 10.769 66.999 6.381 66.999 6.381 66.999 7.413 66.999 10.769z"/>
                <path fill="#FFF" fill-rule="nonzero" d="M59.265 19.59c-2.045.005-3.698 1.674-3.693 3.729.004 2.055 1.666 3.716 3.71 3.712 2.045-.005 3.699-1.675 3.694-3.73.014-.991-.373-1.946-1.072-2.646-.7-.7-1.652-1.084-2.639-1.065zm0 5.965c-.918.064-1.783-.442-2.18-1.277-.396-.835-.245-1.828.382-2.506.627-.677 1.602-.9 2.46-.563.857.338 1.421 1.167 1.424 2.092.028.58-.178 1.145-.57 1.57-.393.423-.94.67-1.516.684zm-8.1-5.965c-2.044.005-3.698 1.674-3.693 3.729.005 2.055 1.666 3.716 3.71 3.712 2.046-.005 3.7-1.675 3.694-3.73.015-.991-.372-1.946-1.072-2.646-.7-.7-1.652-1.084-2.638-1.065zm0 5.965c-.918.064-1.782-.442-2.179-1.277-.397-.835-.246-1.828.381-2.506.628-.677 1.603-.9 2.46-.563.857.338 1.422 1.167 1.424 2.092.029.58-.177 1.145-.57 1.57-.392.423-.939.67-1.515.684zm-9.628-4.821v1.572h3.754c-.059.74-.365 1.439-.87 1.982-.76.78-1.815 1.199-2.902 1.153-2.304 0-4.171-1.877-4.171-4.192 0-2.315 1.867-4.192 4.171-4.192 1.06-.016 2.085.39 2.85 1.127l1.104-1.11c-1.046-1.04-2.465-1.612-3.936-1.589-2.104-.082-4.085.999-5.16 2.818-1.077 1.818-1.077 4.083 0 5.901 1.075 1.82 3.056 2.9 5.16 2.818 1.503.06 2.96-.528 4.006-1.616.912-1.007 1.399-2.332 1.356-3.694.003-.328-.023-.655-.079-.978h-5.283zm39.376 1.223c-.464-1.372-1.723-2.314-3.164-2.367-.96-.002-1.88.396-2.538 1.099-.658.703-.998 1.649-.938 2.612-.015 1.638 1.044 3.09 2.602 3.568 1.559.478 3.244-.131 4.142-1.498l-1.26-.873c-.382.64-1.073 1.029-1.816 1.022-.771.032-1.483-.416-1.79-1.127l4.944-2.052-.182-.384zm-5.04 1.24c-.036-.548.15-1.088.514-1.497.364-.409.877-.653 1.423-.678.573-.035 1.11.278 1.365.795l-3.303 1.38zm-4.016 3.598h1.625V15.878h-1.625v10.917zm-2.659-6.376h-.06c-.492-.562-1.203-.88-1.947-.873-1.973.096-3.523 1.732-3.523 3.716 0 1.985 1.55 3.62 3.523 3.716.746.015 1.46-.305 1.946-.873h.061v.533c0 1.423-.756 2.183-1.973 2.183-.83-.018-1.569-.54-1.868-1.319l-1.408.585c.533 1.345 1.836 2.22 3.276 2.201 1.904 0 3.477-1.126 3.477-3.869v-6.61h-1.504v.61zm-1.868 5.136c-1.182-.074-2.103-1.06-2.103-2.25s.92-2.174 2.103-2.248c.562.024 1.09.277 1.464.7.373.423.56.98.517 1.544.048.566-.137 1.127-.51 1.553-.375.426-.907.679-1.471.7zm21.196-9.677h-3.894v10.917h1.625v-4.14h2.269c1.262.091 2.47-.534 3.128-1.62.659-1.086.659-2.45 0-3.537-.659-1.086-1.866-1.711-3.128-1.62zm0 5.24h-2.269v-3.72h2.303c.665 0 1.279.356 1.61.934.333.578.333 1.29 0 1.87-.331.577-.945.934-1.61.934l-.034-.018zm10.028-1.563c-1.21-.075-2.347.58-2.894 1.668l1.434.603c.296-.537.878-.848 1.486-.795.417-.05.836.072 1.163.337.326.264.534.65.575 1.069v.105c-.522-.276-1.104-.42-1.694-.42-1.547 0-3.129.874-3.129 2.463.031.683.336 1.324.845 1.776.51.453 1.18.679 1.858.626.83.046 1.62-.361 2.068-1.066h.052v.874h1.565v-4.2c0-1.914-1.443-3.023-3.294-3.023l-.035-.017zm-.2 5.982c-.53 0-1.268-.27-1.268-.926 0-.873.92-1.17 1.738-1.17.516-.013 1.026.114 1.477.367-.113.98-.93 1.727-1.912 1.747l-.035-.018zm9.23-5.729l-1.86 4.734h-.052l-1.93-4.734h-1.738l2.894 6.62-1.651 3.677h1.695l4.45-10.297h-1.808zm-14.6 6.987H94.6V15.878h-1.616v10.917z"/>
                <use fill="#00F076" xlink:href="#yvz15x08qa"/>
                <path fill="#FFD100" d="M23.323 20.865l4.222-2.455c.856-.5.856-1.312 0-1.81l-4.238-2.465-3.174 3.357 3.19 3.373"/>
                <use fill="#00CEFF" xlink:href="#xqm8b4qkqb"/>
                <use fill="#F63448" xlink:href="#ltdc3wedic"/>
            </g>
        </g>
    </g>
</svg>
