<svg xmlns="http://www.w3.org/2000/svg" width="494.393" height="649.386" viewBox="0 0 494.393 649.386">
  <g id="Group" transform="translate(-4)">
    <path id="SWIPE_UP" data-name="SWIPE UP" d="M-246.267-4.158c4.536,3.024,13.482,5.544,21.672,5.544,20.034,0,29.61-11.466,29.61-24.57,0-12.474-7.182-19.4-21.546-24.948-11.718-4.536-16.884-8.442-16.884-16.38,0-5.8,4.41-12.726,16-12.726a31.427,31.427,0,0,1,16,4.032l3.024-8.946c-3.654-2.142-10.08-4.158-18.648-4.158-16.506,0-27.468,9.828-27.468,23.058,0,11.844,8.568,19.152,22.428,24.192,11.466,4.284,16,8.946,16,16.758,0,8.568-6.552,14.49-17.766,14.49a37.176,37.176,0,0,1-19.53-5.544ZM-154.539,0l12.1-44.226a236.719,236.719,0,0,0,6.552-27.72h.252a255.714,255.714,0,0,0,5.544,27.72L-119.385,0h11.466l24.066-84.924H-95.067l-11.214,42.84c-2.646,10.584-5.04,20.034-6.8,29.358h-.252c-1.26-8.946-3.528-19.026-5.922-29.106l-10.332-43.092h-11.466l-11.34,42.84c-2.9,10.962-5.544,21.042-6.93,29.484h-.252c-1.512-8.19-3.78-18.774-6.3-29.358l-10.08-42.966h-11.592L-166,0Zm81.144-84.924V0h11.088V-84.924ZM-43.155,0h10.962V-34.02a37.732,37.732,0,0,0,8.82.756c10.71,0,20.034-3.15,25.956-9.324C6.867-47,9.135-53.046,9.135-60.732c0-7.56-2.9-13.734-7.434-17.766-5.04-4.536-12.978-7.056-23.814-7.056a127.052,127.052,0,0,0-21.042,1.638Zm10.962-75.978a46,46,0,0,1,10.332-.882c11.97,0,20.034,5.418,20.034,16.758,0,11.466-8.064,18.018-21.294,18.018a36.762,36.762,0,0,1-9.072-.882Zm99.918,27.09H34.839V-75.726h34.9v-9.2H23.751V0h47.88V-9.2H34.839V-39.816H67.725Zm44.73-36.036V-34.9c0,26.46,13.1,36.288,30.492,36.288,18.4,0,32.13-10.584,32.13-36.666V-84.924H163.989v50.4c0,18.648-8.19,26.964-20.664,26.964-11.34,0-19.782-8.064-19.782-26.964v-50.4ZM194.1,0h10.962V-34.02a37.732,37.732,0,0,0,8.82.756c10.71,0,20.034-3.15,25.956-9.324,4.284-4.41,6.552-10.458,6.552-18.144,0-7.56-2.9-13.734-7.434-17.766-5.04-4.536-12.978-7.056-23.814-7.056A127.051,127.051,0,0,0,194.1-83.916Zm10.962-75.978A46,46,0,0,1,215.4-76.86c11.97,0,20.034,5.418,20.034,16.758,0,11.466-8.064,18.018-21.294,18.018a36.762,36.762,0,0,1-9.072-.882Z" transform="translate(252 648)" fill="#fff"/>
    <g id="Oval" transform="translate(4)" fill="none" stroke-miterlimit="10">
      <path d="M247,0C383.414,0,494,110.586,494,247S383.414,494,247,494,0,383.414,0,247,110.586,0,247,0Z" stroke="none"/>
      <path d="M 247 30 C 127.3457336425781 30 30 127.3457336425781 30 247 C 30 366.6542663574219 127.3457336425781 464 247 464 C 366.6542663574219 464 464 366.6542663574219 464 247 C 464 127.3457336425781 366.6542663574219 30 247 30 M 247 0 C 383.4142761230469 0 494 110.5857238769531 494 247 C 494 383.4142761230469 383.4142761230469 494 247 494 C 110.5857238769531 494 0 383.4142761230469 0 247 C 0 110.5857238769531 110.5857238769531 0 247 0 Z" stroke="none" fill="#fff"/>
    </g>
    <g id="noun_Dropdown_1542639" transform="translate(412.081 347) rotate(180)">
      <path id="Shape" d="M317.87,29.968,287.368,0,160.005,130.038,29.968,2.676,0,33.714,161.076,190.508Z" transform="translate(0.605 0.816)" fill="#fff"/>
    </g>
  </g>
</svg>
